<?xml version="1.0" encoding="utf-8"?>
<!-- Generator: Adobe Illustrator 16.0.0, SVG Export Plug-In . SVG Version: 6.00 Build 0)  -->
<!DOCTYPE svg PUBLIC "-//W3C//DTD SVG 1.1//EN" "http://www.w3.org/Graphics/SVG/1.1/DTD/svg11.dtd">
<svg version="1.1" id="Layer_1" xmlns="http://www.w3.org/2000/svg" xmlns:xlink="http://www.w3.org/1999/xlink" x="0px" y="0px"
	 width="612px" height="612px" viewBox="0 0 612 612" enable-background="new 0 0 612 612" xml:space="preserve">
<g id="Shield">
	<path d="M548.628,209.244c0,27.494,0.071,54.991-0.015,82.485c-0.267,84.645-27.697,159.197-83.964,222.594
		c-42.061,47.387-94.012,79.132-155.473,94.963c-3.242,0.835-7.146,0.746-10.368-0.199
		C174.318,572.505,98.901,489.349,67.76,364.607c-5.811-23.274-7.596-47.184-7.606-71.172
		c-0.029-65.275-0.013-130.551-0.008-195.825c0-11.046,2.425-13.6,13.114-15.091c79.258-11.054,154.488-34.354,224.186-74.245
		c4.979-2.849,9.176-2.776,14.077,0.039c66.633,38.272,138.597,60.946,214.199,72.88c3.726,0.588,7.486,0.967,11.226,1.473
		c8.757,1.186,11.658,4.394,11.666,13.239C548.645,133.685,548.628,171.463,548.628,209.244z M80.304,103.919
		c0,0.447,0,2.105,0,3.764c0.002,62.554-0.636,125.117,0.347,187.655c0.35,22.297,2.189,45.135,7.52,66.691
		c28.324,114.535,97.875,191.396,211.635,226.457c2.81,0.863,6.286,0.905,9.118,0.128c30.771-8.455,59.752-21.116,85.787-39.61
		c87.849-62.39,131.956-148.115,133.604-255.435c0.946-61.699,0.173-123.426,0.174-185.14c0-2.051,0-4.101,0-6.31
		c-1.815-0.347-3.014-0.616-4.22-0.799c-76.063-11.647-148.573-33.996-216.162-71.37c-1.998-1.106-5.766-0.86-7.848,0.3
		C261.8,51.646,221.409,68.54,179.044,80.167C146.78,89.024,113.973,95.9,80.304,103.919z"/>
	<path d="M99.344,223.713c0-30.852-0.007-61.705,0.005-92.558c0.004-10.398,1.961-12.954,12.06-14.863
		c65.251-12.339,127.819-32.579,186.772-63.423c5.125-2.682,9.529-1.586,14.265,0.88c48.776,25.411,100.232,43.53,153.733,55.96
		c11.018,2.559,22.161,4.555,33.23,6.888c7.227,1.523,10.015,4.727,9.984,12.226c-0.25,62.535,1.896,125.204-1.451,187.575
		c-6.104,113.671-84.104,218.159-198.45,252.187c-3.358,0.998-7.621,0.867-10.959-0.246
		C196.129,534.237,133.5,463.377,106.811,359.727c-5.777-22.438-7.464-45.49-7.467-68.644
		C99.342,268.626,99.344,246.17,99.344,223.713z M119.5,229.159c0,21.407-0.042,42.814,0.007,64.222
		c0.089,39.11,7.373,76.803,23.872,112.326c32.159,69.241,83.542,117.575,156.574,141.774c2.729,0.903,6.377,1.066,8.967,0.021
		c14.735-5.957,30.126-10.938,43.749-18.894c89.164-52.077,133.78-130.921,136.382-233.427c1.307-51.387,0.182-102.834,0.33-154.252
		c0.012-4.416-1.191-6.045-5.688-6.937c-61.156-12.141-119.848-31.586-175.65-59.601c-2.324-1.167-6.469-0.395-9.054,0.896
		c-55.106,27.496-113.06,46.563-173.352,58.638c-5.143,1.03-6.271,2.909-6.239,7.716C119.597,170.813,119.498,199.987,119.5,229.159
		z"/>
	<path fill="#CCCCCC" d="M528.488,102.121c-1.815-0.347-3.014-0.616-4.221-0.799c-76.062-11.647-148.572-33.996-216.161-71.37
		c-1.998-1.106-5.766-0.86-7.848,0.3c-38.459,21.396-78.851,38.29-121.216,49.917c-32.263,8.855-65.07,15.731-98.74,23.751
		c0,0.447,0,2.105,0,3.764c0.002,62.554-0.636,125.117,0.347,187.655c0.35,22.297,2.189,45.134,7.52,66.69
		c28.324,114.536,97.875,191.396,211.635,226.458c2.809,0.863,6.286,0.905,9.118,0.128c30.771-8.455,59.752-21.116,85.787-39.61
		c87.849-62.39,131.956-148.114,133.604-255.435c0.946-61.699,0.173-123.426,0.174-185.14
		C528.488,106.38,528.488,104.33,528.488,102.121z M507.945,316.398c-6.104,113.67-84.104,218.158-198.45,252.186
		c-3.358,0.998-7.621,0.867-10.959-0.246C196.129,534.237,133.5,463.377,106.811,359.727c-5.777-22.438-7.464-45.49-7.467-68.644
		c-0.001-22.456,0-44.913,0-67.37c0-30.852-0.007-61.705,0.005-92.558c0.004-10.398,1.961-12.954,12.06-14.863
		c65.251-12.339,127.819-32.579,186.772-63.423c5.125-2.682,9.529-1.586,14.265,0.88c48.776,25.411,100.232,43.53,153.733,55.96
		c11.018,2.559,22.161,4.555,33.23,6.888c7.227,1.523,10.015,4.727,9.984,12.226C509.146,191.358,511.292,254.027,507.945,316.398z"
		/>
	<path fill="#171F69" d="M489.381,140.93c0.012-4.416-1.191-6.045-5.688-6.937c-61.156-12.141-119.848-31.586-175.65-59.601
		c-2.324-1.167-6.469-0.395-9.053,0.896c-55.107,27.496-113.061,46.563-173.352,58.638c-5.143,1.03-6.271,2.909-6.239,7.716
		c0.199,29.172,0.1,58.346,0.103,87.518c0,21.407-0.042,42.814,0.007,64.222c0.089,39.11,7.373,76.802,23.872,112.326
		c32.159,69.241,83.542,117.575,156.574,141.775c2.729,0.902,6.377,1.065,8.967,0.02c14.735-5.957,30.126-10.938,43.749-18.894
		c89.164-52.077,133.78-130.92,136.382-233.427C490.355,243.795,489.23,192.348,489.381,140.93z"/>
</g>
<g id="Pen">
	<path d="M606,138.238c-2.969,14.532-12.449,24.637-22.546,34.712C465.55,290.614,347.83,408.462,229.902,526.104
		c-3.866,3.855-9.09,6.984-14.262,8.797c-58.7,20.573-117.516,40.818-176.292,61.182c-1.402,0.486-2.701,1.271-4.047,1.918
		c-4.957,0-9.912,0-14.868,0c0-4.954,0-9.913,0-14.868c5.323-14.808,10.777-29.569,15.948-44.432
		c16.066-46.171,31.968-92.398,48.13-138.536c1.269-3.622,3.504-7.267,6.213-9.978C211.501,269.226,332.408,148.395,453.197,27.445
		c7.683-7.693,16.817-12.13,26.997-15.013c4.573,0,9.147,0,13.725,0c13.928,2.73,24.068,11.227,33.665,21.11
		c18.567,19.123,37.426,37.971,56.543,56.547c10.112,9.83,19.213,20,21.873,34.424C606,129.089,606,133.664,606,138.238z
		 M167.198,451.134c10.999,0,20.483-0.311,29.93,0.133c4.594,0.218,7.753-0.988,11.011-4.255
		c77.359-77.531,154.825-154.958,232.268-232.41c1.461-1.462,2.857-2.988,4.065-4.252c-12.198-12.204-24.146-24.158-36.249-36.263
		c-0.45,0.378-1.223,0.929-1.886,1.589c-78.798,78.787-157.594,157.577-236.342,236.416c-1.248,1.251-2.644,3.102-2.678,4.7
		C167.086,427.777,167.198,438.771,167.198,451.134z M536.313,187.596c13.213-13.202,26.326-26.18,39.291-39.304
		c10.269-10.395,10.138-24.037-0.26-34.465c-23.402-23.476-46.841-46.921-70.313-70.325c-11.073-11.039-24.22-11.091-35.236-0.169
		c-12.042,11.937-23.999,23.961-35.972,35.97c-1.01,1.013-1.846,2.206-2.634,3.16C466.246,117.524,500.995,152.274,536.313,187.596z
		 M198.5,474.146c-3.492-0.181-6.52-0.405-9.551-0.485c-8.758-0.229-17.52-0.35-26.278-0.596
		c-14.043-0.396-16.8-3.156-17.247-17.395c-0.31-9.901-0.453-19.806-0.73-29.707c-0.056-2.007-0.391-4.008-0.607-6.117
		c-13.653-2.175-26.75-4.257-40.114-6.383c-10.541,30.462-20.889,60.369-30.772,88.927c8.812,6.626,17.459,11.76,24.317,18.669
		c6.979,7.03,12.196,15.812,18.517,24.271c28.089-9.716,57.022-19.667,85.86-29.888c1.295-0.463,2.636-3.506,2.409-5.126
		C202.63,498.468,200.561,486.675,198.5,474.146z M121.467,393.027c8.108,1.297,16.218,2.22,24.131,4.01
		c4.531,1.023,7.292-0.191,10.434-3.34c77.272-77.434,154.646-154.768,231.997-232.125c1.336-1.334,2.604-2.735,3.796-3.99
		c-6.045-6.059-11.912-11.94-17.438-17.475C290.293,224.2,206.108,308.384,121.467,393.027z M225.483,496.979
		c84.621-84.646,168.792-168.845,252.81-252.887c-5.498-5.518-11.365-11.404-18.117-18.18c-1.036,1.448-1.958,3.2-3.297,4.539
		c-77.326,77.389-154.687,154.745-232.043,232.103c-0.944,0.942-2.08,1.766-2.777,2.862c-0.653,1.027-1.329,2.421-1.161,3.529
		C222.315,478.293,223.923,487.608,225.483,496.979z M391.883,122.667c34.558,34.56,69.486,69.494,103.675,103.682
		c7.408-7.396,15.28-15.252,22.736-22.694c-34.366-34.408-69.178-69.263-103.669-103.797
		C407.017,107.491,399.142,115.386,391.883,122.667z M50.486,568.011c14.888-5.141,28.371-9.796,42.365-14.627
		c-6.091-12.706-15.015-21.642-27.714-27.749C60.319,539.57,55.652,553.069,50.486,568.011z"/>
	<path fill="#CCCCCC" d="M167.198,451.134c0-12.363-0.112-23.354,0.122-34.343c0.034-1.6,1.43-3.449,2.678-4.7
		c78.748-78.839,157.544-157.629,236.342-236.416c0.663-0.66,1.436-1.211,1.886-1.589c12.103,12.105,24.051,24.06,36.249,36.263
		c-1.208,1.265-2.604,2.791-4.065,4.252C362.966,292.053,285.5,369.479,208.14,447.011c-3.258,3.267-6.417,4.473-11.011,4.255
		C187.681,450.823,178.197,451.134,167.198,451.134z"/>
	<path fill="#666666" d="M536.313,187.596c-35.315-35.322-70.064-70.072-105.123-105.133c0.787-0.954,1.623-2.147,2.633-3.16
		c11.973-12.009,23.93-24.034,35.972-35.97c11.021-10.921,24.163-10.87,35.236,0.169c23.475,23.404,46.911,46.849,70.313,70.325
		c10.396,10.429,10.526,24.071,0.26,34.465C562.639,161.417,549.523,174.395,536.313,187.596z"/>
	<path fill="#FFFFFF" d="M198.5,474.146c2.061,12.528,4.13,24.321,5.803,36.171c0.228,1.62-1.113,4.663-2.409,5.126
		c-28.838,10.221-57.771,20.172-85.86,29.888c-6.321-8.46-11.537-17.239-18.517-24.271c-6.858-6.911-15.506-12.043-24.317-18.669
		c9.883-28.558,20.231-58.465,30.772-88.927c13.365,2.126,26.461,4.208,40.114,6.383c0.217,2.109,0.551,4.11,0.607,6.117
		c0.278,9.901,0.42,19.806,0.73,29.707c0.447,14.236,3.203,16.996,17.247,17.393c8.758,0.248,17.52,0.369,26.278,0.598
		C191.979,473.739,195.008,473.966,198.5,474.146z"/>
	<path fill="#999999" d="M121.467,393.027c84.642-84.646,168.827-168.828,252.921-252.92c5.524,5.535,11.394,11.416,17.438,17.475
		c-1.191,1.255-2.46,2.656-3.796,3.99c-77.353,77.356-154.725,154.691-231.997,232.125c-3.142,3.146-5.903,4.363-10.434,3.34
		C137.685,395.247,129.575,394.324,121.467,393.027z"/>
	<path fill="#999999" d="M225.483,496.979c-1.56-9.371-3.168-18.688-4.586-28.031c-0.168-1.108,0.508-2.502,1.161-3.529
		c0.698-1.099,1.833-1.92,2.777-2.862c77.357-77.355,154.717-154.714,232.043-232.103c1.339-1.339,2.261-3.091,3.297-4.539
		c6.752,6.775,12.619,12.662,18.117,18.18C394.275,328.137,310.104,412.333,225.483,496.979z"/>
	<path fill="#FFFFFF" d="M391.883,122.667c7.259-7.282,15.134-15.176,22.742-22.809c34.491,34.535,69.303,69.39,103.669,103.797
		c-7.456,7.442-15.328,15.298-22.736,22.694C461.369,192.162,426.438,157.228,391.883,122.667z"/>
	<path fill="#171F69" d="M50.486,568.011c5.166-14.939,9.833-28.438,14.651-42.376c12.699,6.107,21.623,15.043,27.714,27.749
		C78.857,558.215,65.374,562.87,50.486,568.011z"/>
</g>
</svg>
