<?xml version="1.0" encoding="utf-8"?>
<!-- Generator: Adobe Illustrator 16.0.0, SVG Export Plug-In . SVG Version: 6.00 Build 0)  -->
<!DOCTYPE svg PUBLIC "-//W3C//DTD SVG 1.1//EN" "http://www.w3.org/Graphics/SVG/1.1/DTD/svg11.dtd">
<svg version="1.1" id="Layer_1" xmlns="http://www.w3.org/2000/svg" xmlns:xlink="http://www.w3.org/1999/xlink" x="0px" y="0px"
	 width="1248.381px" height="608.21px" viewBox="0 0 1248.381 608.21" enable-background="new 0 0 1248.381 608.21"
	 xml:space="preserve">
<g id="Shield">
	<path class="outline" fill-rule="evenodd" clip-rule="evenodd" d="M547.792,207.496c0,27.494,0.071,54.991-0.015,82.485
		c-0.264,84.645-27.659,159.197-83.848,222.594c-42.001,47.387-93.881,79.132-155.257,94.963c-3.238,0.835-7.137,0.746-10.354-0.199
		C173.999,570.757,98.686,487.601,67.587,362.86c-5.803-23.275-7.586-47.183-7.596-71.173
		c-0.029-65.275-0.013-130.551-0.008-195.825c0-11.046,2.422-13.6,13.096-15.091c79.148-11.054,154.275-34.354,223.877-74.245
		c4.973-2.849,9.163-2.776,14.056,0.039c66.541,38.272,138.405,60.946,213.906,72.88c3.718,0.588,7.476,0.967,11.208,1.473
		c8.744,1.186,11.643,4.394,11.649,13.239C547.809,131.937,547.792,169.715,547.792,207.496z M80.113,102.171
		c0,0.447,0,2.105,0,3.764c0.002,62.554-0.635,125.117,0.346,187.655c0.35,22.297,2.186,45.134,7.51,66.691
		c28.285,114.535,97.74,191.396,211.344,226.457c2.804,0.865,6.277,0.907,9.105,0.128c30.729-8.455,59.67-21.116,85.669-39.61
		c87.728-62.39,131.774-148.115,133.42-255.435c0.947-61.699,0.173-123.426,0.174-185.14c0-2.051,0-4.101,0-6.31
		c-1.813-0.347-3.008-0.616-4.213-0.799c-75.957-11.647-148.37-33.996-215.866-71.37c-1.995-1.106-5.755-0.86-7.834,0.3
		C261.36,49.9,221.025,66.793,178.718,78.42C146.499,87.276,113.736,94.152,80.113,102.171z"/>
	<path class="outline" fill-rule="evenodd" clip-rule="evenodd" d="M99.127,221.965c0-30.852-0.007-61.705,0.005-92.558
		c0.004-10.398,1.959-12.954,12.043-14.863c65.162-12.339,127.643-32.579,186.518-63.423c5.118-2.682,9.516-1.586,14.243,0.88
		c48.711,25.411,100.097,43.53,153.523,55.96c11.001,2.559,22.131,4.555,33.186,6.888c7.216,1.523,10.001,4.727,9.972,12.226
		c-0.25,62.535,1.892,125.204-1.45,187.576c-6.095,113.67-83.988,218.16-198.178,252.186c-3.354,0.998-7.61,0.867-10.943-0.246
		c-102.266-34.101-164.809-104.961-191.462-208.612c-5.769-22.439-7.454-45.49-7.457-68.643
		C99.125,266.878,99.127,244.422,99.127,221.965z M119.256,227.411c0,21.407-0.042,42.814,0.007,64.222
		c0.088,39.11,7.362,76.802,23.838,112.326C175.217,473.2,226.53,521.534,299.46,545.734c2.725,0.904,6.368,1.067,8.954,0.02
		c14.715-5.957,30.085-10.938,43.689-18.894c89.041-52.077,133.596-130.92,136.193-233.427c1.303-51.387,0.18-102.834,0.33-154.252
		c0.012-4.416-1.192-6.045-5.681-6.937c-61.072-12.141-119.681-31.586-175.409-59.601c-2.32-1.167-6.459-0.395-9.041,0.896
		c-55.03,27.496-112.904,46.563-173.113,58.638c-5.136,1.03-6.262,2.909-6.23,7.716
		C119.352,169.065,119.253,198.239,119.256,227.411z"/>
	<path class="outline" stroke="#FFFFFF" stroke-width="0.9993" d="M508.617,127.075c0.029-7.499-2.756-10.703-9.972-12.226
		c-11.055-2.333-22.185-4.329-33.186-6.888c-53.427-12.43-104.813-30.549-153.523-55.96c-4.727-2.466-9.125-3.562-14.243-0.88
		c-58.875,30.844-121.356,51.084-186.518,63.423c-10.084,1.909-12.039,4.465-12.043,14.863c-0.013,30.853-0.005,61.706-0.005,92.558
		c0,22.457-0.001,44.914,0,67.37c0.003,23.153,1.688,46.204,7.457,68.643c26.653,103.651,89.196,174.512,191.462,208.612
		c3.333,1.113,7.59,1.244,10.943,0.246C423.178,532.811,501.072,428.32,507.167,314.65
		C510.508,252.279,508.367,189.61,508.617,127.075z M488.297,293.434C485.7,395.94,441.145,474.783,352.104,526.86
		c-13.604,7.955-28.975,12.937-43.689,18.894c-2.586,1.048-6.229,0.885-8.954-0.02c-72.931-24.2-124.244-72.534-156.358-141.775
		c-16.476-35.524-23.75-73.216-23.838-112.326c-0.049-21.407-0.007-42.814-0.007-64.222c-0.003-29.172,0.096-58.346-0.103-87.518
		c-0.032-4.807,1.094-6.686,6.23-7.716c60.208-12.075,118.083-31.142,173.113-58.638c2.581-1.291,6.72-2.062,9.041-0.896
		c55.729,28.015,114.337,47.46,175.409,59.601c4.488,0.892,5.692,2.521,5.681,6.937C488.477,190.6,489.6,242.047,488.297,293.434z"
		/>
	<path class="fill" fill="#FFFFFF" stroke="#FFFFFF" stroke-width="0.9993" d="M527.681,100.373
		c-1.813-0.347-3.008-0.616-4.213-0.799c-75.957-11.647-148.37-33.996-215.866-71.37c-1.995-1.106-5.755-0.86-7.834,0.3
		C261.361,49.9,221.025,66.793,178.718,78.42c-32.22,8.855-64.982,15.731-98.605,23.751c0,0.447,0,2.105,0,3.764
		c0.002,62.554-0.635,125.117,0.346,187.655c0.35,22.297,2.186,45.134,7.51,66.691c28.285,114.535,97.74,191.396,211.344,226.457
		c2.803,0.865,6.277,0.907,9.105,0.128c30.729-8.455,59.67-21.116,85.669-39.61c87.728-62.39,131.774-148.115,133.42-255.435
		c0.947-61.699,0.173-123.426,0.174-185.14C527.681,104.632,527.681,102.582,527.681,100.373z M507.167,314.65
		c-6.095,113.67-83.988,218.16-198.178,252.186c-3.354,0.998-7.61,0.867-10.943-0.246
		c-102.266-34.101-164.809-104.961-191.462-208.612c-5.769-22.439-7.454-45.49-7.457-68.643c-0.001-22.456,0-44.913,0-67.37
		c0-30.852-0.007-61.705,0.005-92.558c0.004-10.398,1.959-12.954,12.043-14.863c65.162-12.339,127.643-32.579,186.518-63.423
		c5.118-2.682,9.516-1.586,14.243,0.88c48.711,25.411,100.097,43.53,153.523,55.96c11.001,2.559,22.131,4.555,33.186,6.888
		c7.216,1.523,10.001,4.727,9.972,12.226C508.367,189.61,510.508,252.279,507.167,314.65z"/>
	<path class="fill" fill="#FFFFFF" stroke="#FFFFFF" stroke-width="0.9993" d="M488.627,139.182
		c0.012-4.416-1.192-6.045-5.681-6.937c-61.072-12.141-119.681-31.586-175.409-59.601c-2.32-1.167-6.459-0.395-9.041,0.896
		c-55.031,27.496-112.905,46.563-173.113,58.638c-5.136,1.03-6.262,2.909-6.23,7.716c0.198,29.172,0.1,58.346,0.103,87.518
		c0,21.407-0.042,42.814,0.007,64.222c0.088,39.11,7.362,76.802,23.838,112.326C175.217,473.2,226.53,521.534,299.46,545.734
		c2.725,0.904,6.368,1.067,8.954,0.02c14.715-5.957,30.085-10.938,43.689-18.894c89.041-52.077,133.596-130.92,136.193-233.427
		C489.6,242.047,488.477,190.6,488.627,139.182z"/>
</g>
<g id="Pen">
	<path class="outline" fill-rule="evenodd" clip-rule="evenodd" d="M605.085,136.49c-2.965,14.532-12.432,24.637-22.515,34.712
		c-117.742,117.664-235.3,235.511-353.065,353.153c-3.86,3.857-9.078,6.986-14.242,8.797
		c-58.619,20.575-117.354,40.82-176.049,61.182c-1.4,0.486-2.697,1.271-4.042,1.918c-4.95,0-9.898,0-14.848,0
		c0-4.954,0-9.913,0-14.868c5.316-14.808,10.763-29.571,15.926-44.432c16.044-46.171,31.924-92.398,48.064-138.536
		c1.268-3.622,3.5-7.266,6.205-9.978C211.13,267.478,331.871,146.647,452.494,25.697c7.672-7.693,16.796-12.13,26.96-15.013
		c4.568,0,9.137,0,13.705,0c13.909,2.73,24.035,11.227,33.619,21.11c18.542,19.123,37.374,37.971,56.465,56.547
		c10.099,9.83,19.187,20,21.843,34.424C605.085,127.341,605.085,131.916,605.085,136.49z M166.888,449.386
		c10.984,0,20.455-0.311,29.889,0.133c4.588,0.216,7.743-0.99,10.996-4.255c77.252-77.532,154.612-154.958,231.948-232.41
		c1.459-1.462,2.855-2.988,4.062-4.252c-12.184-12.204-24.115-24.158-36.199-36.263c-0.451,0.378-1.221,0.929-1.883,1.589
		c-78.689,78.787-157.377,157.577-236.017,236.416c-1.246,1.251-2.64,3.102-2.674,4.7
		C166.776,426.029,166.888,437.022,166.888,449.386z M535.494,185.848c13.193-13.202,26.291-26.18,39.237-39.304
		c10.253-10.395,10.122-24.037-0.259-34.465c-23.372-23.476-46.776-46.921-70.219-70.325c-11.059-11.039-24.185-11.091-35.188-0.169
		c-12.025,11.937-23.966,23.961-35.922,35.97c-1.007,1.013-1.841,2.206-2.629,3.16C465.524,115.776,500.225,150.526,535.494,185.848
		z M198.146,472.398c-3.487-0.181-6.511-0.407-9.538-0.487c-8.747-0.227-17.496-0.348-26.242-0.596
		c-14.024-0.396-16.777-3.156-17.223-17.393c-0.31-9.901-0.452-19.806-0.729-29.707c-0.056-2.007-0.39-4.008-0.607-6.117
		c-13.634-2.175-26.712-4.257-40.059-6.383c-10.526,30.462-20.86,60.369-30.729,88.927c8.799,6.626,17.436,11.758,24.284,18.669
		c6.97,7.03,12.179,15.81,18.491,24.27c28.05-9.716,56.944-19.667,85.742-29.888c1.294-0.461,2.633-3.504,2.405-5.126
		C202.271,496.72,200.205,484.927,198.146,472.398z M121.22,391.279c8.097,1.297,16.195,2.22,24.098,4.01
		c4.525,1.023,7.282-0.192,10.42-3.34c77.166-77.434,154.433-154.768,231.677-232.125c1.334-1.334,2.601-2.735,3.79-3.99
		c-6.036-6.059-11.896-11.94-17.412-17.475C289.814,222.452,205.745,306.636,121.22,391.279z M225.093,495.231
		c84.505-84.646,168.56-168.843,252.461-252.885c-5.49-5.518-11.35-11.404-18.092-18.18c-1.035,1.448-1.955,3.2-3.292,4.539
		c-77.22,77.389-154.474,154.745-231.724,232.103c-0.943,0.942-2.077,1.764-2.774,2.862c-0.652,1.027-1.327,2.421-1.159,3.529
		C221.929,476.545,223.535,485.86,225.093,495.231z M391.263,120.919c34.509,34.56,69.391,69.494,103.532,103.682
		c7.398-7.396,15.259-15.252,22.705-22.694C483.181,167.5,448.418,132.645,413.974,98.11
		C406.376,105.743,398.512,113.638,391.263,120.919z M50.337,566.263c14.867-5.141,28.332-9.796,42.307-14.627
		c-6.083-12.706-14.994-21.642-27.676-27.749C60.156,537.822,55.496,551.321,50.337,566.263z"/>
	<path class="fill" fill-rule="evenodd" clip-rule="evenodd" fill="#FFFFFF" d="M166.888,449.386c0-12.363-0.112-23.356,0.122-34.343
		c0.034-1.599,1.428-3.449,2.674-4.7c78.639-78.839,157.327-157.629,236.017-236.416c0.662-0.66,1.432-1.211,1.883-1.589
		c12.084,12.105,24.016,24.06,36.199,36.263c-1.206,1.265-2.603,2.791-4.062,4.252c-77.336,77.452-154.695,154.878-231.948,232.41
		c-3.253,3.265-6.408,4.471-10.996,4.255C187.343,449.075,177.872,449.386,166.888,449.386z"/>
	<path class="fill" fill-rule="evenodd" clip-rule="evenodd" fill="#FFFFFF" d="M535.494,185.848c-35.269-35.322-69.97-70.072-104.979-105.133
		c0.788-0.954,1.622-2.147,2.629-3.16c11.956-12.009,23.896-24.034,35.922-35.97c11.004-10.921,24.13-10.87,35.188,0.169
		c23.442,23.404,46.847,46.849,70.219,70.325c10.381,10.429,10.512,24.071,0.259,34.465
		C561.785,159.668,548.687,172.646,535.494,185.848z"/>
	<path class="fill" fill-rule="evenodd" clip-rule="evenodd" fill="#FFFFFF" d="M198.146,472.398c2.058,12.528,4.125,24.321,5.794,36.169
		c0.228,1.622-1.111,4.665-2.405,5.126c-28.798,10.221-57.692,20.172-85.742,29.888c-6.312-8.46-11.521-17.239-18.491-24.27
		c-6.849-6.911-15.485-12.043-24.284-18.669c9.869-28.558,20.203-58.465,30.729-88.927c13.347,2.126,26.425,4.208,40.059,6.383
		c0.217,2.109,0.551,4.11,0.607,6.117c0.277,9.901,0.419,19.806,0.729,29.707c0.446,14.236,3.199,16.996,17.223,17.393
		c8.746,0.248,17.496,0.369,26.242,0.596C191.635,471.991,194.66,472.218,198.146,472.398z"/>
	<path class="fill" fill-rule="evenodd" clip-rule="evenodd" fill="#FFFFFF" d="M121.22,391.279c84.525-84.644,168.594-168.828,252.573-252.92
		c5.517,5.535,11.376,11.416,17.412,17.475c-1.189,1.255-2.456,2.656-3.79,3.99c-77.244,77.356-154.512,154.691-231.677,232.125
		c-3.138,3.147-5.895,4.363-10.42,3.34C137.415,393.499,129.317,392.576,121.22,391.279z"/>
	<path class="fill" fill-rule="evenodd" clip-rule="evenodd" fill="#FFFFFF" d="M225.093,495.231c-1.558-9.371-3.164-18.687-4.58-28.031
		c-0.168-1.108,0.507-2.502,1.159-3.529c0.697-1.099,1.831-1.92,2.774-2.862c77.25-77.357,154.504-154.714,231.724-232.103
		c1.337-1.339,2.257-3.091,3.292-4.539c6.742,6.775,12.602,12.662,18.092,18.18C393.653,326.389,309.598,410.585,225.093,495.231z"
		/>
	<path class="fill" fill-rule="evenodd" clip-rule="evenodd" fill="#FFFFFF" d="M391.263,120.919c7.249-7.282,15.113-15.176,22.711-22.809
		c34.444,34.535,69.207,69.39,103.526,103.797c-7.446,7.442-15.307,15.298-22.705,22.694
		C460.654,190.414,425.772,155.479,391.263,120.919z"/>
	<path class="fill" fill-rule="evenodd" clip-rule="evenodd" fill="#FFFFFF" d="M50.337,566.263c5.159-14.941,9.819-28.44,14.631-42.376
		c12.682,6.107,21.593,15.043,27.676,27.749C78.668,556.467,65.204,561.122,50.337,566.263z"/>
</g>
<g id="Open">
	<path class="text" d="M720.917,253.535c-16.607,0-31.287-3.509-44.043-10.528c-12.758-7.021-22.756-16.68-30.002-28.985
		c-7.246-12.303-10.869-26.38-10.869-42.231c0-15.999,3.623-30.152,10.869-42.457c7.246-12.302,17.209-21.965,29.891-28.984
		c12.68-7.02,27.246-10.53,43.701-10.53c16.605,0,31.25,3.51,43.931,10.53c12.68,7.019,22.644,16.682,29.89,28.984
		c7.246,12.305,10.869,26.458,10.869,42.457c0,15.851-3.588,29.928-10.756,42.231c-7.172,12.305-17.097,21.964-29.777,28.985
		C751.94,250.025,737.37,253.535,720.917,253.535z M720.917,215.04c8.152,0,15.32-1.846,21.512-5.547
		c6.189-3.697,11.019-8.792,14.492-15.285c3.471-6.489,5.209-13.961,5.209-22.417c0-8.453-1.777-15.963-5.321-22.531
		c-3.55-6.567-8.456-11.697-14.719-15.397c-6.266-3.697-13.474-5.548-21.626-5.548c-8.002,0-15.135,1.851-21.397,5.548
		c-6.266,3.701-11.174,8.831-14.718,15.397c-3.55,6.567-5.322,14.078-5.322,22.531c0,8.457,1.811,15.928,5.434,22.417
		c3.624,6.492,8.566,11.587,14.833,15.285C705.555,213.194,712.765,215.04,720.917,215.04z"/>
	<path class="text" d="M824.399,250.818V92.311h65.668c11.923,0,22.49,2.342,31.701,7.02c9.205,4.681,16.416,11.173,21.624,19.474
		c5.209,8.304,7.813,17.889,7.813,28.758c0,10.868-2.604,20.492-7.813,28.871c-5.208,8.379-12.419,14.945-21.624,19.701
		c-9.211,4.754-19.778,7.133-31.701,7.133h-23.776v47.552H824.399z M866.291,164.771h22.644c5.735,0,10.378-1.584,13.926-4.755
		c3.546-3.17,5.322-7.32,5.322-12.454c0-4.982-1.776-9.058-5.322-12.228c-3.548-3.17-8.19-4.756-13.926-4.756h-22.644V164.771z"/>
	<path class="text" d="M965.923,250.818V92.311h106.2v38.495h-64.309v21.964h52.081v37.362h-52.081v22.192h65.894v38.495H965.923z"/>
	<path class="text" d="M1098.617,250.818V92.311h44.156l61.817,87.179V92.311h41.891v158.507h-41.891l-64.082-90.349v90.349H1098.617z"/>
</g>
<g id="RPG">
	<path class="text" d="M636.002,513.313v-221.91h91.541c16.623,0,31.354,3.224,44.193,9.668c12.833,6.451,22.886,15.326,30.145,26.628
		c7.26,11.309,10.891,24.361,10.891,39.152c0,14.795-3.631,27.951-10.891,39.469c-7.259,11.521-17.312,20.502-30.145,26.945
		c-12.84,6.449-27.57,9.67-44.193,9.67h-33.145v70.377H636.002z M694.399,389.043h29.988c5.258,0,9.889-0.951,13.889-2.854
		c3.994-1.902,7.151-4.543,9.471-7.926c2.313-3.377,3.473-7.182,3.473-11.412c0-6.34-2.477-11.57-7.42-15.691
		c-4.946-4.123-11.418-6.182-19.412-6.182h-29.988V389.043z M754.69,513.313l-49.242-87.18l43.877-32.969l72.286,120.148H754.69z"/>
	<path class="text" d="M845.283,513.313v-221.91h91.542c16.621,0,31.354,3.279,44.192,9.826c12.833,6.554,22.886,15.644,30.146,27.263
		c7.26,11.627,10.89,25.045,10.89,40.262s-3.63,28.689-10.89,40.418c-7.26,11.73-17.313,20.924-30.146,27.582
		c-12.839,6.656-27.571,9.986-44.192,9.986h-33.146v66.572H845.283z M903.679,392.846h31.567c7.994,0,14.466-2.219,19.412-6.656
		c4.942-4.439,7.419-10.248,7.419-17.436c0-6.975-2.477-12.682-7.419-17.119c-4.946-4.438-11.418-6.656-19.412-6.656h-31.567
		V392.846z"/>
	<path class="text" d="M1147.685,517.117c-22.728,0-42.825-4.914-60.292-14.742c-17.469-9.826-31.146-23.35-41.034-40.578
		c-9.895-17.223-14.837-37.035-14.837-59.439c0-22.4,4.942-42.213,14.837-59.441c9.889-17.221,23.565-30.75,41.034-40.577
		c17.467-9.827,37.564-14.742,60.292-14.742c14.939,0,28.144,2.116,39.615,6.34c11.468,4.23,21.412,9.986,29.829,17.277
		c8.415,7.293,15.572,15.693,21.465,25.203l-48.611,28.85c-2.948-4.646-6.684-8.77-11.205-12.365
		c-4.528-3.59-9.471-6.391-14.836-8.4c-5.367-2.006-10.787-3.012-16.257-3.012c-10.943,0-20.626,2.592-29.04,7.766
		c-8.42,5.182-15.049,12.316-19.888,21.4c-4.843,9.09-7.26,19.654-7.26,31.701c0,11.838,2.313,22.404,6.946,31.701
		c4.625,9.303,11.308,16.594,20.042,21.875c8.731,5.285,18.989,7.926,30.778,7.926c8.413,0,15.886-1.531,22.412-4.598
		c6.52-3.061,11.678-7.395,15.466-12.998c3.789-5.598,5.682-12.096,5.682-19.496l55.558-10.461c0,22.404-4.316,41.107-12.943,56.111
		c-8.631,15.01-20.468,26.209-35.512,33.604C1184.878,513.416,1167.463,517.117,1147.685,517.117z M1143.583,433.426v-44.383
		h104.799v32.652l-33.146,11.73H1143.583z"/>
</g>
<rect class="ruler" id="Ruler_Bottom" x="636.002" y="551.919" width="612.379" height="44.333"/>
<rect class="ruler" id="Ruler_Top" x="636.002" y="11.268" width="612.379" height="44.333"/>
</svg>
